/lhcb/user/r/rmatev/2018_08/225846/225846049/Brunel.dst
/lhcb/user/r/rmatev/2018_08/225846/225846050/Brunel.dst
/lhcb/user/r/rmatev/2018_08/225846/225846052/Brunel.dst
/lhcb/user/r/rmatev/2018_08/225846/225846053/Brunel.dst
/lhcb/user/r/rmatev/2018_08/225846/225846055/Brunel.dst
/lhcb/user/r/rmatev/2018_08/225846/225846056/Brunel.dst
/lhcb/user/r/rmatev/2018_08/225846/225846059/Brunel.dst
/lhcb/user/r/rmatev/2018_08/225846/225846060/Brunel.dst
/lhcb/user/r/rmatev/2018_08/225846/225846062/Brunel.dst
/lhcb/user/r/rmatev/2018_08/225846/225846063/Brunel.dst
/lhcb/user/r/rmatev/2018_08/225846/225846065/Brunel.dst
/lhcb/user/r/rmatev/2018_08/225846/225846066/Brunel.dst
/lhcb/user/r/rmatev/2018_08/225846/225846067/Brunel.dst
/lhcb/user/r/rmatev/2018_08/225846/225846069/Brunel.dst
/lhcb/user/r/rmatev/2018_08/225846/225846071/Brunel.dst
/lhcb/user/r/rmatev/2018_08/225846/225846072/Brunel.dst
/lhcb/user/r/rmatev/2018_08/225846/225846073/Brunel.dst
/lhcb/user/r/rmatev/2018_08/225846/225846075/Brunel.dst
/lhcb/user/r/rmatev/2018_08/225846/225846077/Brunel.dst
/lhcb/user/r/rmatev/2018_08/225846/225846078/Brunel.dst
/lhcb/user/r/rmatev/2018_08/225846/225846079/Brunel.dst
/lhcb/user/r/rmatev/2018_08/225846/225846081/Brunel.dst
/lhcb/user/r/rmatev/2018_08/225846/225846082/Brunel.dst
/lhcb/user/r/rmatev/2018_08/225846/225846084/Brunel.dst
/lhcb/user/r/rmatev/2018_08/225846/225846085/Brunel.dst
/lhcb/user/r/rmatev/2018_08/225846/225846086/Brunel.dst
/lhcb/user/r/rmatev/2018_08/225846/225846088/Brunel.dst
/lhcb/user/r/rmatev/2018_08/225846/225846089/Brunel.dst
/lhcb/user/r/rmatev/2018_08/225846/225846091/Brunel.dst
/lhcb/user/r/rmatev/2018_08/225846/225846093/Brunel.dst
/lhcb/user/r/rmatev/2018_08/225846/225846094/Brunel.dst
/lhcb/user/r/rmatev/2018_08/225846/225846095/Brunel.dst
/lhcb/user/r/rmatev/2018_08/225846/225846097/Brunel.dst
/lhcb/user/r/rmatev/2018_08/225846/225846098/Brunel.dst
/lhcb/user/r/rmatev/2018_08/225846/225846099/Brunel.dst
/lhcb/user/r/rmatev/2018_08/225846/225846101/Brunel.dst
/lhcb/user/r/rmatev/2018_08/225846/225846102/Brunel.dst
/lhcb/user/r/rmatev/2018_08/225846/225846103/Brunel.dst
/lhcb/user/r/rmatev/2018_08/225846/225846105/Brunel.dst
/lhcb/user/r/rmatev/2018_08/225846/225846106/Brunel.dst
/lhcb/user/r/rmatev/2018_08/225846/225846108/Brunel.dst
/lhcb/user/r/rmatev/2018_08/225846/225846112/Brunel.dst
/lhcb/user/r/rmatev/2018_08/225846/225846113/Brunel.dst
/lhcb/user/r/rmatev/2018_08/225846/225846114/Brunel.dst
/lhcb/user/r/rmatev/2018_08/225846/225846116/Brunel.dst
/lhcb/user/r/rmatev/2018_08/225846/225846118/Brunel.dst
/lhcb/user/r/rmatev/2018_08/225846/225846120/Brunel.dst
/lhcb/user/r/rmatev/2018_08/225846/225846121/Brunel.dst
/lhcb/user/r/rmatev/2018_08/225846/225846123/Brunel.dst
/lhcb/user/r/rmatev/2018_08/225846/225846125/Brunel.dst
/lhcb/user/r/rmatev/2018_08/225846/225846126/Brunel.dst
/lhcb/user/r/rmatev/2018_08/225846/225846128/Brunel.dst
/lhcb/user/r/rmatev/2018_08/225846/225846129/Brunel.dst
/lhcb/user/r/rmatev/2018_08/225846/225846131/Brunel.dst
/lhcb/user/r/rmatev/2018_08/225846/225846132/Brunel.dst
/lhcb/user/r/rmatev/2018_08/225846/225846133/Brunel.dst
/lhcb/user/r/rmatev/2018_08/225846/225846135/Brunel.dst
/lhcb/user/r/rmatev/2018_08/225846/225846136/Brunel.dst
/lhcb/user/r/rmatev/2018_08/225846/225846138/Brunel.dst
/lhcb/user/r/rmatev/2018_08/225846/225846139/Brunel.dst
/lhcb/user/r/rmatev/2018_08/225846/225846141/Brunel.dst
/lhcb/user/r/rmatev/2018_08/225846/225846142/Brunel.dst
/lhcb/user/r/rmatev/2018_08/225846/225846143/Brunel.dst
/lhcb/user/r/rmatev/2018_08/225846/225846145/Brunel.dst
/lhcb/user/r/rmatev/2018_08/225846/225846147/Brunel.dst
/lhcb/user/r/rmatev/2018_08/225846/225846148/Brunel.dst
/lhcb/user/r/rmatev/2018_08/225846/225846150/Brunel.dst
/lhcb/user/r/rmatev/2018_08/225846/225846151/Brunel.dst
/lhcb/user/r/rmatev/2018_08/225846/225846153/Brunel.dst
/lhcb/user/r/rmatev/2018_08/225846/225846154/Brunel.dst
/lhcb/user/r/rmatev/2018_08/225846/225846156/Brunel.dst
/lhcb/user/r/rmatev/2018_08/225846/225846157/Brunel.dst
/lhcb/user/r/rmatev/2018_08/225846/225846159/Brunel.dst
/lhcb/user/r/rmatev/2018_08/225846/225846161/Brunel.dst
/lhcb/user/r/rmatev/2018_08/225846/225846164/Brunel.dst
/lhcb/user/r/rmatev/2018_08/225846/225846165/Brunel.dst
/lhcb/user/r/rmatev/2018_08/225846/225846166/Brunel.dst
/lhcb/user/r/rmatev/2018_08/225846/225846168/Brunel.dst
/lhcb/user/r/rmatev/2018_08/225846/225846170/Brunel.dst
/lhcb/user/r/rmatev/2018_08/225846/225846172/Brunel.dst
/lhcb/user/r/rmatev/2018_08/225846/225846173/Brunel.dst
/lhcb/user/r/rmatev/2018_08/225846/225846175/Brunel.dst
/lhcb/user/r/rmatev/2018_08/225846/225846177/Brunel.dst
/lhcb/user/r/rmatev/2018_08/225846/225846179/Brunel.dst
/lhcb/user/r/rmatev/2018_08/225846/225846181/Brunel.dst
/lhcb/user/r/rmatev/2018_08/225846/225846183/Brunel.dst
/lhcb/user/r/rmatev/2018_08/225846/225846184/Brunel.dst
/lhcb/user/r/rmatev/2018_08/225846/225846185/Brunel.dst
/lhcb/user/r/rmatev/2018_08/225846/225846187/Brunel.dst
/lhcb/user/r/rmatev/2018_08/225846/225846189/Brunel.dst
/lhcb/user/r/rmatev/2018_08/225846/225846191/Brunel.dst
/lhcb/user/r/rmatev/2018_08/225846/225846193/Brunel.dst
/lhcb/user/r/rmatev/2018_08/225846/225846196/Brunel.dst
/lhcb/user/r/rmatev/2018_08/225846/225846199/Brunel.dst
/lhcb/user/r/rmatev/2018_08/225846/225846201/Brunel.dst
/lhcb/user/r/rmatev/2018_08/225846/225846204/Brunel.dst
/lhcb/user/r/rmatev/2018_08/225846/225846205/Brunel.dst
/lhcb/user/r/rmatev/2018_08/225846/225846207/Brunel.dst
/lhcb/user/r/rmatev/2018_08/225846/225846210/Brunel.dst
/lhcb/user/r/rmatev/2018_08/225846/225846223/Brunel.dst
/lhcb/user/r/rmatev/2018_08/225846/225846225/Brunel.dst
/lhcb/user/r/rmatev/2018_08/225846/225846226/Brunel.dst
/lhcb/user/r/rmatev/2018_08/225846/225846228/Brunel.dst
/lhcb/user/r/rmatev/2018_08/225846/225846229/Brunel.dst
/lhcb/user/r/rmatev/2018_08/225846/225846231/Brunel.dst
/lhcb/user/r/rmatev/2018_08/225846/225846232/Brunel.dst
/lhcb/user/r/rmatev/2018_08/225846/225846234/Brunel.dst
/lhcb/user/r/rmatev/2018_08/225846/225846235/Brunel.dst
/lhcb/user/r/rmatev/2018_08/225846/225846238/Brunel.dst
/lhcb/user/r/rmatev/2018_08/225846/225846240/Brunel.dst
/lhcb/user/r/rmatev/2018_08/225846/225846242/Brunel.dst
/lhcb/user/r/rmatev/2018_08/225846/225846245/Brunel.dst
/lhcb/user/r/rmatev/2018_08/225846/225846248/Brunel.dst
/lhcb/user/r/rmatev/2018_08/225846/225846250/Brunel.dst
/lhcb/user/r/rmatev/2018_08/225846/225846251/Brunel.dst
/lhcb/user/r/rmatev/2018_08/225846/225846253/Brunel.dst
/lhcb/user/r/rmatev/2018_08/225846/225846254/Brunel.dst
/lhcb/user/r/rmatev/2018_08/225846/225846255/Brunel.dst
/lhcb/user/r/rmatev/2018_08/225846/225846256/Brunel.dst
/lhcb/user/r/rmatev/2018_08/225846/225846258/Brunel.dst
/lhcb/user/r/rmatev/2018_08/225846/225846259/Brunel.dst
/lhcb/user/r/rmatev/2018_08/225846/225846261/Brunel.dst
/lhcb/user/r/rmatev/2018_08/225846/225846262/Brunel.dst
/lhcb/user/r/rmatev/2018_08/225846/225846264/Brunel.dst
/lhcb/user/r/rmatev/2018_08/225846/225846265/Brunel.dst
/lhcb/user/r/rmatev/2018_08/225846/225846266/Brunel.dst
/lhcb/user/r/rmatev/2018_08/225846/225846268/Brunel.dst
/lhcb/user/r/rmatev/2018_08/225846/225846269/Brunel.dst
/lhcb/user/r/rmatev/2018_08/225846/225846271/Brunel.dst
/lhcb/user/r/rmatev/2018_08/225846/225846273/Brunel.dst
/lhcb/user/r/rmatev/2018_08/225846/225846274/Brunel.dst
/lhcb/user/r/rmatev/2018_08/225846/225846276/Brunel.dst
/lhcb/user/r/rmatev/2018_08/225846/225846277/Brunel.dst
/lhcb/user/r/rmatev/2018_08/225846/225846279/Brunel.dst
/lhcb/user/r/rmatev/2018_08/225846/225846280/Brunel.dst
/lhcb/user/r/rmatev/2018_08/225846/225846282/Brunel.dst
/lhcb/user/r/rmatev/2018_08/225846/225846283/Brunel.dst
/lhcb/user/r/rmatev/2018_08/225846/225846285/Brunel.dst
/lhcb/user/r/rmatev/2018_08/225846/225846286/Brunel.dst
/lhcb/user/r/rmatev/2018_08/225846/225846287/Brunel.dst
/lhcb/user/r/rmatev/2018_08/225846/225846289/Brunel.dst
/lhcb/user/r/rmatev/2018_08/225846/225846290/Brunel.dst
/lhcb/user/r/rmatev/2018_08/225846/225846294/Brunel.dst
/lhcb/user/r/rmatev/2018_08/225846/225846297/Brunel.dst
/lhcb/user/r/rmatev/2018_08/225846/225846300/Brunel.dst
/lhcb/user/r/rmatev/2018_08/225846/225846301/Brunel.dst
/lhcb/user/r/rmatev/2018_08/225846/225846303/Brunel.dst
/lhcb/user/r/rmatev/2018_08/225846/225846305/Brunel.dst
/lhcb/user/r/rmatev/2018_08/225846/225846306/Brunel.dst
/lhcb/user/r/rmatev/2018_08/225846/225846307/Brunel.dst
/lhcb/user/r/rmatev/2018_08/225846/225846309/Brunel.dst
/lhcb/user/r/rmatev/2018_08/225846/225846311/Brunel.dst
/lhcb/user/r/rmatev/2018_08/225846/225846312/Brunel.dst
/lhcb/user/r/rmatev/2018_08/225846/225846313/Brunel.dst
/lhcb/user/r/rmatev/2018_08/225846/225846315/Brunel.dst
/lhcb/user/r/rmatev/2018_08/225846/225846316/Brunel.dst
/lhcb/user/r/rmatev/2018_08/225846/225846318/Brunel.dst
/lhcb/user/r/rmatev/2018_08/225846/225846320/Brunel.dst
/lhcb/user/r/rmatev/2018_08/225846/225846322/Brunel.dst
/lhcb/user/r/rmatev/2018_08/225846/225846329/Brunel.dst
/lhcb/user/r/rmatev/2018_08/225846/225846331/Brunel.dst
/lhcb/user/r/rmatev/2018_08/225846/225846335/Brunel.dst
/lhcb/user/r/rmatev/2018_08/225846/225846339/Brunel.dst
/lhcb/user/r/rmatev/2018_08/225846/225846343/Brunel.dst
/lhcb/user/r/rmatev/2018_08/225846/225846351/Brunel.dst
/lhcb/user/r/rmatev/2018_08/225846/225846355/Brunel.dst
/lhcb/user/r/rmatev/2018_08/225846/225846357/Brunel.dst
/lhcb/user/r/rmatev/2018_08/225846/225846358/Brunel.dst
/lhcb/user/r/rmatev/2018_08/225846/225846359/Brunel.dst
/lhcb/user/r/rmatev/2018_08/225846/225846361/Brunel.dst
/lhcb/user/r/rmatev/2018_08/225846/225846362/Brunel.dst
/lhcb/user/r/rmatev/2018_08/225846/225846363/Brunel.dst
/lhcb/user/r/rmatev/2018_08/225846/225846364/Brunel.dst
/lhcb/user/r/rmatev/2018_08/225846/225846365/Brunel.dst
/lhcb/user/r/rmatev/2018_08/225846/225846366/Brunel.dst
/lhcb/user/r/rmatev/2018_08/225846/225846368/Brunel.dst
/lhcb/user/r/rmatev/2018_08/225846/225846370/Brunel.dst
/lhcb/user/r/rmatev/2018_08/225846/225846371/Brunel.dst
/lhcb/user/r/rmatev/2018_08/225846/225846372/Brunel.dst
/lhcb/user/r/rmatev/2018_08/225846/225846373/Brunel.dst
/lhcb/user/r/rmatev/2018_08/225846/225846374/Brunel.dst
/lhcb/user/r/rmatev/2018_08/225846/225846375/Brunel.dst
/lhcb/user/r/rmatev/2018_08/225846/225846376/Brunel.dst
/lhcb/user/r/rmatev/2018_08/225846/225846377/Brunel.dst
/lhcb/user/r/rmatev/2018_08/225846/225846379/Brunel.dst
/lhcb/user/r/rmatev/2018_08/225846/225846380/Brunel.dst
/lhcb/user/r/rmatev/2018_08/225846/225846381/Brunel.dst
/lhcb/user/r/rmatev/2018_08/225846/225846382/Brunel.dst
/lhcb/user/r/rmatev/2018_08/225846/225846383/Brunel.dst
/lhcb/user/r/rmatev/2018_08/225846/225846384/Brunel.dst
/lhcb/user/r/rmatev/2018_08/225846/225846385/Brunel.dst
/lhcb/user/r/rmatev/2018_08/225846/225846386/Brunel.dst
/lhcb/user/r/rmatev/2018_08/225846/225846387/Brunel.dst
/lhcb/user/r/rmatev/2018_08/225846/225846390/Brunel.dst
/lhcb/user/r/rmatev/2018_08/225846/225846392/Brunel.dst
/lhcb/user/r/rmatev/2018_08/225846/225846395/Brunel.dst
/lhcb/user/r/rmatev/2018_08/225846/225846399/Brunel.dst
/lhcb/user/r/rmatev/2018_08/225846/225846401/Brunel.dst
/lhcb/user/r/rmatev/2018_08/225846/225846436/Brunel.dst
/lhcb/user/r/rmatev/2018_08/225846/225846437/Brunel.dst
/lhcb/user/r/rmatev/2018_08/225846/225846439/Brunel.dst
/lhcb/user/r/rmatev/2018_08/225846/225846440/Brunel.dst
/lhcb/user/r/rmatev/2018_08/225846/225846441/Brunel.dst
/lhcb/user/r/rmatev/2018_08/225846/225846443/Brunel.dst
/lhcb/user/r/rmatev/2018_08/225846/225846444/Brunel.dst
/lhcb/user/r/rmatev/2018_08/225846/225846446/Brunel.dst
/lhcb/user/r/rmatev/2018_08/225846/225846447/Brunel.dst
/lhcb/user/r/rmatev/2018_08/225846/225846449/Brunel.dst
/lhcb/user/r/rmatev/2018_08/225846/225846451/Brunel.dst
/lhcb/user/r/rmatev/2018_08/225846/225846452/Brunel.dst
/lhcb/user/r/rmatev/2018_08/225846/225846453/Brunel.dst
/lhcb/user/r/rmatev/2018_08/225846/225846455/Brunel.dst
/lhcb/user/r/rmatev/2018_08/225846/225846457/Brunel.dst
/lhcb/user/r/rmatev/2018_08/225846/225846458/Brunel.dst
/lhcb/user/r/rmatev/2018_08/225846/225846460/Brunel.dst
/lhcb/user/r/rmatev/2018_08/225846/225846461/Brunel.dst
/lhcb/user/r/rmatev/2018_08/225846/225846462/Brunel.dst
/lhcb/user/r/rmatev/2018_08/225846/225846465/Brunel.dst
/lhcb/user/r/rmatev/2018_08/225846/225846466/Brunel.dst
/lhcb/user/r/rmatev/2018_08/225846/225846467/Brunel.dst
/lhcb/user/r/rmatev/2018_08/225846/225846470/Brunel.dst
/lhcb/user/r/rmatev/2018_08/225846/225846472/Brunel.dst
/lhcb/user/r/rmatev/2018_08/225846/225846473/Brunel.dst
/lhcb/user/r/rmatev/2018_08/225846/225846475/Brunel.dst
/lhcb/user/r/rmatev/2018_08/225846/225846477/Brunel.dst
/lhcb/user/r/rmatev/2018_08/225846/225846481/Brunel.dst
/lhcb/user/r/rmatev/2018_08/225846/225846482/Brunel.dst
/lhcb/user/r/rmatev/2018_08/225846/225846484/Brunel.dst
/lhcb/user/r/rmatev/2018_08/225846/225846485/Brunel.dst
/lhcb/user/r/rmatev/2018_08/225846/225846488/Brunel.dst
/lhcb/user/r/rmatev/2018_08/225846/225846491/Brunel.dst
/lhcb/user/r/rmatev/2018_08/225846/225846494/Brunel.dst
/lhcb/user/r/rmatev/2018_08/225846/225846496/Brunel.dst
/lhcb/user/r/rmatev/2018_08/225846/225846500/Brunel.dst
/lhcb/user/r/rmatev/2018_08/225846/225846503/Brunel.dst
/lhcb/user/r/rmatev/2018_08/225846/225846506/Brunel.dst
/lhcb/user/r/rmatev/2018_08/225846/225846509/Brunel.dst
